{
  "navigationTitle": "Isamedia",
  "sidebar": {
    "visible": false,
    "switch-behavior": "visible",
    "itens": [
      {
        "label": "Videos",
        "icon": "video",
        "state": "root.videos"
      }
    ]
  }
}